{
  "tree": [
    {
      "name": "Pictures",
      "type": "folder",
      "children": [
        {
          "name": "Family",
          "type": "folder",
          "children": [
            {
              "name": "file1.jpg",
              "type": "file"
            },
            {
              "name": "file2.jpg",
              "type": "file"
            },
            {
              "name": "file3.jpg",
              "type": "file"
            }
          ]
        },
        {
          "name": "foto2908776t.jpg",
          "type": "file"
        },
        {
          "name": "foto21345.jpg",
          "type": "file"
        }
      ]
    },
    {
      "name": "Documents",
      "type": "folder",
      "children": [
        {
          "name": "Drafts",
          "type": "folder",
          "children": [
            {
              "name": "Temporary",
              "type": "folder",
              "children": []
            },
            {
              "name": "document9.docx",
              "type": "file"
            },
            {
              "name": "document10.docx",
              "type": "file"
            },
            {
              "name": "document99.docx",
              "type": "file"
            }
          ]
        },
        {
          "name": "price.docx",
          "type": "file"
        },
        {
          "name": "vision.docx",
          "type": "file"
        },
        {
          "name": "Trash",
          "type": "folder",
          "children": [
            {
              "name": "doc1.docx",
              "type": "file"
            },
            {
              "name": "doc2.docx",
              "type": "file"
            },
            {
              "name": "doc3.docx",
              "type": "file"
            }
          ]
        }
      ]
    },
    {
      "name": "Games",
      "type": "folder",
      "children": [
        {
          "name": "tetris.exe",
          "type": "file"
        },
        {
          "name": "gomoku.com",
          "type": "file"
        },
        {
          "name": "pacman.com",
          "type": "file"
        }
      ]
    }
  ]
}
